{"content":[{"id":5887,"name":"hadouken_102","createdAt":"2025-05-21T11:08:31.374Z","updatedAt":"2025-05-21T11:08:31.395Z","createdByUserEmail":"nagruzka3_gr01@mail.com","updatedByUserEmail":"nagruzka3_gr01@mail.com","testIdSet":[],"labelSet":[]},{"id":5886,"name":"hadouken_374","createdAt":"2025-05-21T11:07:42.126Z","updatedAt":"2025-05-21T11:07:42.148Z","createdByUserEmail":"nagruzka3_gr01@mail.com","updatedByUserEmail":"nagruzka3_gr01@mail.com","testIdSet":[],"labelSet":[]},{"id":5885,"name":"hadouken_757","createdAt":"2025-05-21T11:05:54.968Z","updatedAt":"2025-05-21T11:05:54.992Z","createdByUserEmail":"nagruzka3_gr01@mail.com","updatedByUserEmail":"nagruzka3_gr01@mail.com","testIdSet":[],"labelSet":[]},{"id":5884,"name":"Report name","createdAt":"2025-05-21T11:04:50.845Z","updatedAt":"2025-05-21T11:04:52.547Z","createdByUserEmail":"testik5@mail.ru","updatedByUserEmail":"testik5@mail.ru","testIdSet":[],"labelSet":[]},{"id":5883,"name":"hadouken_3","createdAt":"2025-05-21T11:02:42.816Z","updatedAt":"2025-05-21T11:02:42.866Z","createdByUserEmail":"nagruzka3_gr01@mail.com","updatedByUserEmail":"nagruzka3_gr01@mail.com","testIdSet":[],"labelSet":[]},{"id":5882,"name":"hadouken_2","createdAt":"2025-05-21T10:59:12.607Z","updatedAt":"2025-05-21T10:59:12.636Z","createdByUserEmail":"nagruzka3_gr01@mail.com","updatedByUserEmail":"nagruzka3_gr01@mail.com","testIdSet":[],"labelSet":[]},{"id":5881,"name":"hadouken_737","createdAt":"2025-05-21T10:50:37.586Z","updatedAt":"2025-05-21T10:50:37.643Z","createdByUserEmail":"nagruzka3_gr01@mail.com","updatedByUserEmail":"nagruzka3_gr01@mail.com","testIdSet":[],"labelSet":[]},{"id":5880,"name":"ReportRAn666","createdAt":"2025-05-21T10:39:41.876Z","updatedAt":"2025-05-21T10:39:41.897Z","createdByUserEmail":"nagruzka3_gr01@mail.com","updatedByUserEmail":"nagruzka3_gr01@mail.com","testIdSet":[],"labelSet":[]},{"id":5879,"name":"report_777","createdAt":"2025-05-21T10:29:46.482Z","updatedAt":"2025-05-21T10:29:46.502Z","createdByUserEmail":"nagruzka3_gr01@mail.com","updatedByUserEmail":"nagruzka3_gr01@mail.com","testIdSet":[],"labelSet":[]}],"pageable":{"sort":{"sorted":true,"unsorted":false,"empty":false},"pageNumber":0,"pageSize":9,"offset":0,"paged":true,"unpaged":false},"totalPages":5,"totalElements":45,"last":false,"first":true,"sort":{"sorted":true,"unsorted":false,"empty":false},"numberOfElements":9,"size":9,"number":0,"empty":false}