{"content":[{"id":1190,"name":"hadouken_358","createdAt":"2025-05-22T16:10:47.877Z","updatedAt":"2025-05-22T16:10:47.900Z","createdByUserEmail":"nagruzka3gr3@mail.com","updatedByUserEmail":"nagruzka3gr3@mail.com","testIdSet":[],"labelSet":[]},{"id":1182,"name":"hadouken_748","createdAt":"2025-05-22T15:13:49.076Z","updatedAt":"2025-05-22T15:13:49.103Z","createdByUserEmail":"nagruzka3gr3@mail.com","updatedByUserEmail":"nagruzka3gr3@mail.com","testIdSet":[],"labelSet":[]},{"id":1178,"name":"Report 318","createdAt":"2025-05-22T14:57:11.046Z","updatedAt":"2025-05-22T14:57:11.066Z","createdByUserEmail":"nagruzka3gr3@mail.com","updatedByUserEmail":"nagruzka3gr3@mail.com","testIdSet":[],"labelSet":[]},{"id":1177,"name":"Report 903","createdAt":"2025-05-22T14:55:05.791Z","updatedAt":"2025-05-22T14:55:05.813Z","createdByUserEmail":"nagruzka3gr3@mail.com","updatedByUserEmail":"nagruzka3gr3@mail.com","testIdSet":[],"labelSet":[]},{"id":1176,"name":"Report 522","createdAt":"2025-05-22T14:49:13.418Z","updatedAt":"2025-05-22T14:49:13.438Z","createdByUserEmail":"nagruzka3gr3@mail.com","updatedByUserEmail":"nagruzka3gr3@mail.com","testIdSet":[],"labelSet":[]},{"id":1174,"name":"Nik1470","createdAt":"2025-05-22T14:43:53.061Z","updatedAt":"2025-05-22T14:43:53.085Z","createdByUserEmail":"Nik2585@example.com","updatedByUserEmail":"Nik2585@example.com","testIdSet":[],"labelSet":[]},{"id":1173,"name":"Nik1199","createdAt":"2025-05-22T14:42:29.849Z","updatedAt":"2025-05-22T14:42:29.863Z","createdByUserEmail":"Nik2585@example.com","updatedByUserEmail":"Nik2585@example.com","testIdSet":[],"labelSet":[]},{"id":1172,"name":"Report_Nik967","createdAt":"2025-05-22T14:41:19.309Z","updatedAt":"2025-05-22T14:41:19.368Z","createdByUserEmail":"Nik2585@example.com","updatedByUserEmail":"Nik2585@example.com","testIdSet":[],"labelSet":[]},{"id":1171,"name":"Report_Nik765@example.com","createdAt":"2025-05-22T14:40:16.638Z","updatedAt":"2025-05-22T14:40:16.656Z","createdByUserEmail":"Nik2585@example.com","updatedByUserEmail":"Nik2585@example.com","testIdSet":[],"labelSet":[]}],"pageable":{"sort":{"sorted":true,"unsorted":false,"empty":false},"pageSize":9,"pageNumber":0,"offset":0,"paged":true,"unpaged":false},"last":false,"totalPages":2,"totalElements":13,"first":true,"sort":{"sorted":true,"unsorted":false,"empty":false},"numberOfElements":9,"size":9,"number":0,"empty":false}