{"content":[{"id":6209,"teamId":25,"userId":6047,"email":"emi001@mail.ru","userDisplayName":"emi001","permissionList":["EDIT","VIEW","RUN"],"invitationStatus":"ACCEPTED","inviteUrl":null,"expiredAt":null,"createAt":"2025-05-20T19:27:38.942Z","updatedAt":"2025-05-20T19:28:00.283Z"},{"id":6211,"teamId":25,"userId":6048,"email":"user6068@example.com","userDisplayName":"user6068","permissionList":["EDIT","VIEW","RUN"],"invitationStatus":"ACCEPTED","inviteUrl":null,"expiredAt":null,"createAt":"2025-05-20T19:37:01.321Z","updatedAt":"2025-05-20T19:37:01.621Z"},{"id":6212,"teamId":25,"userId":6049,"email":"user6375@3x2mq13.com","userDisplayName":"user6375","permissionList":["EDIT","VIEW","RUN"],"invitationStatus":"ACCEPTED","inviteUrl":null,"expiredAt":null,"createAt":"2025-05-20T19:38:35.220Z","updatedAt":"2025-05-20T19:38:35.523Z"}],"pageable":{"sort":{"sorted":false,"unsorted":true,"empty":true},"pageNumber":16,"pageSize":3,"offset":48,"unpaged":false,"paged":true},"last":false,"totalElements":62,"totalPages":21,"first":false,"sort":{"sorted":false,"unsorted":true,"empty":true},"numberOfElements":3,"size":3,"number":16,"empty":false}