{"content":[{"id":6202,"teamId":25,"userId":6041,"email":"user7411@example.com","userDisplayName":"user7411","permissionList":["EDIT","VIEW","RUN"],"invitationStatus":"ACCEPTED","inviteUrl":null,"expiredAt":null,"createAt":"2025-05-20T18:52:49.560Z","updatedAt":"2025-05-20T18:52:49.908Z"},{"id":6204,"teamId":25,"userId":6043,"email":"user8276@example.com","userDisplayName":"user8276","permissionList":["EDIT","VIEW","RUN"],"invitationStatus":"ACCEPTED","inviteUrl":null,"expiredAt":null,"createAt":"2025-05-20T18:57:13.841Z","updatedAt":"2025-05-20T18:57:14.188Z"},{"id":6207,"teamId":25,"userId":6045,"email":"emi01@mail.ru","userDisplayName":"emi01","permissionList":["EDIT","VIEW","RUN"],"invitationStatus":"ACCEPTED","inviteUrl":null,"expiredAt":null,"createAt":"2025-05-20T19:17:05.660Z","updatedAt":"2025-05-20T19:17:42.385Z"}],"pageable":{"sort":{"sorted":false,"unsorted":true,"empty":true},"pageNumber":15,"pageSize":3,"offset":45,"unpaged":false,"paged":true},"last":false,"totalElements":62,"totalPages":21,"first":false,"sort":{"sorted":false,"unsorted":true,"empty":true},"numberOfElements":3,"size":3,"number":15,"empty":false}