{"content":[{"id":6198,"teamId":25,"userId":6037,"email":"user5497@example.com","userDisplayName":"user5497","permissionList":["EDIT","VIEW","RUN"],"invitationStatus":"ACCEPTED","inviteUrl":null,"expiredAt":null,"createAt":"2025-05-20T18:43:03.078Z","updatedAt":"2025-05-20T18:43:03.452Z"},{"id":6199,"teamId":25,"userId":6038,"email":"user6091@example.com","userDisplayName":"user6091","permissionList":["EDIT","VIEW","RUN"],"invitationStatus":"ACCEPTED","inviteUrl":null,"expiredAt":null,"createAt":"2025-05-20T18:46:06.284Z","updatedAt":"2025-05-20T18:46:06.660Z"},{"id":6201,"teamId":25,"userId":6040,"email":"user6908@example.com","userDisplayName":"user6908","permissionList":["EDIT","VIEW","RUN"],"invitationStatus":"ACCEPTED","inviteUrl":null,"expiredAt":null,"createAt":"2025-05-20T18:50:15.741Z","updatedAt":"2025-05-20T18:50:16.100Z"}],"pageable":{"sort":{"sorted":false,"unsorted":true,"empty":true},"pageNumber":14,"pageSize":3,"offset":42,"unpaged":false,"paged":true},"last":false,"totalElements":62,"totalPages":21,"first":false,"sort":{"sorted":false,"unsorted":true,"empty":true},"numberOfElements":3,"size":3,"number":14,"empty":false}