{"content":[{"id":6183,"teamId":25,"userId":6023,"email":"em1@mail.ru","userDisplayName":"em1","permissionList":["EDIT","VIEW","RUN"],"invitationStatus":"ACCEPTED","inviteUrl":null,"expiredAt":null,"createAt":"2025-05-20T17:30:11.108Z","updatedAt":"2025-05-20T17:30:58.801Z"},{"id":6195,"teamId":25,"userId":6035,"email":"user2088@example.com","userDisplayName":"user2088","permissionList":["EDIT","VIEW","RUN"],"invitationStatus":"ACCEPTED","inviteUrl":null,"expiredAt":null,"createAt":"2025-05-20T18:25:40.266Z","updatedAt":"2025-05-20T18:25:40.636Z"},{"id":6197,"teamId":25,"userId":6036,"email":"testm7@mail.com","userDisplayName":"testm7","permissionList":["EDIT","VIEW","RUN"],"invitationStatus":"WAITING_FOR_ACCEPTANCE","inviteUrl":"/auth-srv/invite/2ZY7hYOW-NPyTSDDColp8vzfRZMPXfKxtQBz_MbfSr6ewExAGe28IQaQZLPOkZrsPfoF1aRPEFgmMu-r9mrrPkGHGKeZc0iSjfdo4Ac98Cw=","expiredAt":"2025-05-21T18:30:49.724Z","createAt":"2025-05-20T18:30:49.724Z","updatedAt":"2025-05-20T18:30:49.801Z"}],"pageable":{"sort":{"sorted":false,"unsorted":true,"empty":true},"pageNumber":13,"pageSize":3,"offset":39,"unpaged":false,"paged":true},"last":false,"totalElements":62,"totalPages":21,"first":false,"sort":{"sorted":false,"unsorted":true,"empty":true},"numberOfElements":3,"size":3,"number":13,"empty":false}