{"content":[{"id":6238,"teamId":25,"userId":6075,"email":"emi03@mail.ru","userDisplayName":"emi03","permissionList":["EDIT","VIEW","RUN"],"invitationStatus":"ACCEPTED","inviteUrl":null,"expiredAt":null,"createAt":"2025-05-20T20:46:30.293Z","updatedAt":"2025-05-20T20:47:41.634Z"},{"id":6239,"teamId":25,"userId":6076,"email":"666@gmail.com","userDisplayName":"666","permissionList":["EDIT","VIEW","RUN"],"invitationStatus":"WAITING_FOR_ACCEPTANCE","inviteUrl":"/auth-srv/invite/4bJlup3K3xyMocAx2IhiMhfOFQQP1aS106E83R9Ft19zUsP4kKAxPELORnInunv2bPpZx8rOgZBjY1hywL6c94xq8hQgjbMY9X4ri8zmh5E=","expiredAt":"2025-05-21T21:00:53.118Z","createAt":"2025-05-20T21:00:53.119Z","updatedAt":"2025-05-20T21:00:53.239Z"},{"id":6196,"teamId":25,"userId":6019,"email":"user7600@example.com","userDisplayName":"user7600","permissionList":["EDIT","VIEW","RUN"],"invitationStatus":"ACCEPTED","inviteUrl":null,"expiredAt":null,"createAt":"2025-05-20T18:28:40.879Z","updatedAt":"2025-05-20T18:28:40.879Z"}],"pageable":{"sort":{"sorted":false,"unsorted":true,"empty":true},"pageNumber":1,"pageSize":3,"offset":3,"unpaged":false,"paged":true},"last":false,"totalElements":62,"totalPages":21,"first":false,"sort":{"sorted":false,"unsorted":true,"empty":true},"numberOfElements":3,"size":3,"number":1,"empty":false}