{"content":[{"id":6116,"teamId":25,"userId":869,"email":"test@test.test","userDisplayName":"tester","permissionList":["EDIT","VIEW","RUN"],"invitationStatus":"ACCEPTED","inviteUrl":null,"expiredAt":null,"createAt":"2025-05-20T12:35:46.150Z","updatedAt":"2025-05-20T12:35:46.150Z"},{"id":6236,"teamId":25,"userId":6073,"email":"test701@mail.com","userDisplayName":"test701","permissionList":["EDIT","VIEW","RUN"],"invitationStatus":"ACCEPTED","inviteUrl":null,"expiredAt":null,"createAt":"2025-05-20T20:40:31.417Z","updatedAt":"2025-05-20T20:40:31.856Z"},{"id":6237,"teamId":25,"userId":6074,"email":"test388@mail.com","userDisplayName":"test388","permissionList":["EDIT","VIEW","RUN"],"invitationStatus":"ACCEPTED","inviteUrl":null,"expiredAt":null,"createAt":"2025-05-20T20:43:49.569Z","updatedAt":"2025-05-20T20:43:50.019Z"}],"pageable":{"sort":{"sorted":false,"unsorted":true,"empty":true},"pageNumber":0,"pageSize":3,"offset":0,"unpaged":false,"paged":true},"last":false,"totalElements":62,"totalPages":21,"first":true,"sort":{"sorted":false,"unsorted":true,"empty":true},"numberOfElements":3,"size":3,"number":0,"empty":false}