{"content":[{"id":6219,"teamId":25,"userId":6056,"email":"user52@3xampl3.com","userDisplayName":"user52","permissionList":["EDIT","VIEW","RUN"],"invitationStatus":"ACCEPTED","inviteUrl":null,"expiredAt":null,"createAt":"2025-05-20T19:57:19.882Z","updatedAt":"2025-05-20T19:57:20.145Z"},{"id":6220,"teamId":25,"userId":6057,"email":"user319@3xampl3.com","userDisplayName":"user319","permissionList":["EDIT","VIEW","RUN"],"invitationStatus":"ACCEPTED","inviteUrl":null,"expiredAt":null,"createAt":"2025-05-20T19:58:41.575Z","updatedAt":"2025-05-20T19:58:41.871Z"},{"id":6221,"teamId":25,"userId":6058,"email":"user1440@3xampl3.com","userDisplayName":"user1440","permissionList":["EDIT","VIEW","RUN"],"invitationStatus":"ACCEPTED","inviteUrl":null,"expiredAt":null,"createAt":"2025-05-20T20:04:26.021Z","updatedAt":"2025-05-20T20:04:26.313Z"}],"pageable":{"sort":{"sorted":false,"unsorted":true,"empty":true},"pageNumber":19,"pageSize":3,"offset":57,"unpaged":false,"paged":true},"last":false,"totalElements":62,"totalPages":21,"first":false,"sort":{"sorted":false,"unsorted":true,"empty":true},"numberOfElements":3,"size":3,"number":19,"empty":false}