{"content":[{"id":6216,"teamId":25,"userId":6053,"email":"user9304@3x2mq13.com","userDisplayName":"user9304","permissionList":["EDIT","VIEW","RUN"],"invitationStatus":"ACCEPTED","inviteUrl":null,"expiredAt":null,"createAt":"2025-05-20T19:53:31.491Z","updatedAt":"2025-05-20T19:53:31.717Z"},{"id":6217,"teamId":25,"userId":6054,"email":"user9431@example.com","userDisplayName":"user9431","permissionList":["EDIT","VIEW","RUN"],"invitationStatus":"ACCEPTED","inviteUrl":null,"expiredAt":null,"createAt":"2025-05-20T19:54:10.427Z","updatedAt":"2025-05-20T19:54:10.804Z"},{"id":6218,"teamId":25,"userId":6055,"email":"user9696@3xampl3.com","userDisplayName":"user9696","permissionList":["EDIT","VIEW","RUN"],"invitationStatus":"ACCEPTED","inviteUrl":null,"expiredAt":null,"createAt":"2025-05-20T19:55:30.881Z","updatedAt":"2025-05-20T19:55:31.174Z"}],"pageable":{"sort":{"sorted":false,"unsorted":true,"empty":true},"pageNumber":18,"pageSize":3,"offset":54,"unpaged":false,"paged":true},"last":false,"totalElements":62,"totalPages":21,"first":false,"sort":{"sorted":false,"unsorted":true,"empty":true},"numberOfElements":3,"size":3,"number":18,"empty":false}