{"content":[{"id":6214,"teamId":25,"userId":6051,"email":"user7550@3x2mq13.com","userDisplayName":"user7550","permissionList":["EDIT","VIEW","RUN"],"invitationStatus":"ACCEPTED","inviteUrl":null,"expiredAt":null,"createAt":"2025-05-20T19:44:34.283Z","updatedAt":"2025-05-20T19:44:34.578Z"},{"id":6213,"teamId":25,"userId":6050,"email":"poi1@poi.com","userDisplayName":"poi1","permissionList":["EDIT","VIEW","RUN"],"invitationStatus":"ACCEPTED","inviteUrl":null,"expiredAt":null,"createAt":"2025-05-20T19:44:17.038Z","updatedAt":"2025-05-20T19:46:47.153Z"},{"id":6215,"teamId":25,"userId":6052,"email":"user8386@3x2mq13.com","userDisplayName":"user8386","permissionList":["EDIT","VIEW","RUN"],"invitationStatus":"ACCEPTED","inviteUrl":null,"expiredAt":null,"createAt":"2025-05-20T19:48:50.124Z","updatedAt":"2025-05-20T19:48:50.340Z"}],"pageable":{"sort":{"sorted":false,"unsorted":true,"empty":true},"pageNumber":17,"pageSize":3,"offset":51,"unpaged":false,"paged":true},"last":false,"totalElements":62,"totalPages":21,"first":false,"sort":{"sorted":false,"unsorted":true,"empty":true},"numberOfElements":3,"size":3,"number":17,"empty":false}