{"content":[{"id":6181,"teamId":25,"userId":6021,"email":"emik1@mail.ru","userDisplayName":"emik1","permissionList":["EDIT","VIEW","RUN"],"invitationStatus":"ACCEPTED","inviteUrl":null,"expiredAt":null,"createAt":"2025-05-20T17:13:51.949Z","updatedAt":"2025-05-20T17:14:30.835Z"},{"id":6182,"teamId":25,"userId":6022,"email":"emik@mail.ru","userDisplayName":"emik2","permissionList":["EDIT","VIEW","RUN"],"invitationStatus":"WAITING_FOR_ACCEPTANCE","inviteUrl":"/auth-srv/invite/fZWaY4zJpwRtXkHKyvdl9fUFQr8Sk7WBDCyMlBfPBorLwgZkfCnxWEQg3mQa6U4vL6u97Sv73KWUDDHx35jgR7Nj8-qc52Mn4dI4hZm5ApI=","expiredAt":"2025-05-21T17:29:06.538Z","createAt":"2025-05-20T17:29:06.538Z","updatedAt":"2025-05-20T17:29:06.641Z"},{"id":6184,"teamId":25,"userId":6024,"email":"testm6@mail.com","userDisplayName":"testm6","permissionList":["EDIT","VIEW","RUN"],"invitationStatus":"WAITING_FOR_ACCEPTANCE","inviteUrl":"/auth-srv/invite/Hho9iackZ_DvlxozuvaFtlapwXJaU6-3muPNhrhxPcCewExAGe28IQaQZLPOkZrsPfoF1aRPEFgmMu-r9mrrPmJoHt8mLZzMtY_uzbr79ZU=","expiredAt":"2025-05-21T17:30:30.196Z","createAt":"2025-05-20T17:30:30.196Z","updatedAt":"2025-05-20T17:30:30.267Z"}],"pageable":{"sort":{"sorted":false,"unsorted":true,"empty":true},"pageNumber":12,"pageSize":3,"offset":36,"unpaged":false,"paged":true},"last":false,"totalElements":62,"totalPages":21,"first":false,"sort":{"sorted":false,"unsorted":true,"empty":true},"numberOfElements":3,"size":3,"number":12,"empty":false}