{"content":[{"id":6168,"teamId":25,"userId":6009,"email":"user4009@example.com","userDisplayName":"user4009","permissionList":["EDIT","VIEW","RUN"],"invitationStatus":"ACCEPTED","inviteUrl":null,"expiredAt":null,"createAt":"2025-05-20T15:48:20.919Z","updatedAt":"2025-05-20T15:48:21.347Z"},{"id":6170,"teamId":25,"userId":6011,"email":"user9943@example.com","userDisplayName":"user9943","permissionList":["EDIT","VIEW","RUN"],"invitationStatus":"ACCEPTED","inviteUrl":null,"expiredAt":null,"createAt":"2025-05-20T16:18:37.615Z","updatedAt":"2025-05-20T16:18:38.057Z"},{"id":6177,"teamId":25,"userId":6017,"email":"testm5@mail.com","userDisplayName":"testm5","permissionList":["EDIT","VIEW","RUN"],"invitationStatus":"WAITING_FOR_ACCEPTANCE","inviteUrl":"/auth-srv/invite/XOSFs_Ai7dDdq6mK3_Fh_VzuqFs-8x8y66qKvUH4ozeewExAGe28IQaQZLPOkZrsPfoF1aRPEFgmMu-r9mrrPu8bLlm0lyWi83n2ErhVa5Q=","expiredAt":"2025-05-21T16:50:36.270Z","createAt":"2025-05-20T16:50:36.270Z","updatedAt":"2025-05-20T16:50:36.360Z"}],"pageable":{"sort":{"sorted":false,"unsorted":true,"empty":true},"pageNumber":11,"pageSize":3,"offset":33,"unpaged":false,"paged":true},"last":false,"totalElements":62,"totalPages":21,"first":false,"sort":{"sorted":false,"unsorted":true,"empty":true},"numberOfElements":3,"size":3,"number":11,"empty":false}