{"content":[{"id":6150,"teamId":25,"userId":5977,"email":"testm2@mail.com","userDisplayName":"testm2","permissionList":["EDIT","VIEW","RUN"],"invitationStatus":"WAITING_FOR_ACCEPTANCE","inviteUrl":"/auth-srv/invite/1gd4dnQ53gNyFfsz9Vwuc9VpeBnsw9z4PUt44hlPdfaewExAGe28IQaQZLPOkZrsPfoF1aRPEFgmMu-r9mrrPhYwhA54bEVBrmqibFBh4Mc=","expiredAt":"2025-05-21T14:39:42.633Z","createAt":"2025-05-20T14:39:42.633Z","updatedAt":"2025-05-20T14:39:42.636Z"},{"id":6165,"teamId":25,"userId":6006,"email":"member45@mail.ru","userDisplayName":"member45","permissionList":["EDIT","VIEW","RUN"],"invitationStatus":"ACCEPTED","inviteUrl":null,"expiredAt":null,"createAt":"2025-05-20T15:32:24.527Z","updatedAt":"2025-05-20T15:32:38.748Z"},{"id":6166,"teamId":25,"userId":6007,"email":"leb_test_06@gmail.com","userDisplayName":"leb_test_06","permissionList":["EDIT","VIEW","RUN"],"invitationStatus":"ACCEPTED","inviteUrl":null,"expiredAt":null,"createAt":"2025-05-20T15:45:10.379Z","updatedAt":"2025-05-20T15:45:23.319Z"}],"pageable":{"sort":{"sorted":false,"unsorted":true,"empty":true},"pageNumber":10,"pageSize":3,"offset":30,"unpaged":false,"paged":true},"last":false,"totalElements":62,"totalPages":21,"first":false,"sort":{"sorted":false,"unsorted":true,"empty":true},"numberOfElements":3,"size":3,"number":10,"empty":false}