{"content":[{"id":6142,"teamId":25,"userId":5976,"email":"testm1@mail.com","userDisplayName":"testm1","permissionList":["EDIT","VIEW","RUN"],"invitationStatus":"WAITING_FOR_ACCEPTANCE","inviteUrl":"/auth-srv/invite/qJmHQbLPH5eKLKV6nhCMdfoeNl8sVzNGjHwRgLmrbCeewExAGe28IQaQZLPOkZrsPfoF1aRPEFgmMu-r9mrrPu4Ysu_jqpbwE6eWoe5jimA=","expiredAt":"2025-05-21T14:18:38.793Z","createAt":"2025-05-20T14:18:38.793Z","updatedAt":"2025-05-20T14:18:38.797Z"},{"id":6146,"teamId":25,"userId":5984,"email":"tripleauthism@mail.ru","userDisplayName":"Alex","permissionList":["EDIT","VIEW","RUN"],"invitationStatus":"WAITING_FOR_ACCEPTANCE","inviteUrl":"/auth-srv/invite/QPtOnKgeL02-_F30k68oTzqA-v5r8P3AKaA2SRv5vgX9fMHxnm2U7EjptXYSCTaLjQplsZ-pnJD5KpB3c_EIczNSMYJBRMPeP4V6Te3-jlI=","expiredAt":"2025-05-21T14:25:00.878Z","createAt":"2025-05-20T14:25:00.878Z","updatedAt":"2025-05-20T14:25:00.881Z"},{"id":6149,"teamId":25,"userId":5992,"email":"{email}","userDisplayName":"{displayName}","permissionList":["EDIT","VIEW","RUN"],"invitationStatus":"WAITING_FOR_ACCEPTANCE","inviteUrl":"/auth-srv/invite/tAoUygXmYFSQcalGKBlJc8D_GSQ0eMft9RD3UHz8SZKoPkAVVGP19Ki9anN3nF1KUyJ6Txi354tk7xErLabfcZXKZjthg37jTSUL8Vaypfk=","expiredAt":"2025-05-21T14:36:23.093Z","createAt":"2025-05-20T14:36:23.093Z","updatedAt":"2025-05-20T14:36:23.222Z"}],"pageable":{"sort":{"sorted":false,"unsorted":true,"empty":true},"pageNumber":9,"pageSize":3,"offset":27,"unpaged":false,"paged":true},"last":false,"totalElements":62,"totalPages":21,"first":false,"sort":{"sorted":false,"unsorted":true,"empty":true},"numberOfElements":3,"size":3,"number":9,"empty":false}