{"content":[{"id":6124,"teamId":25,"userId":5971,"email":"testm@mail.com","userDisplayName":"testm","permissionList":["EDIT","VIEW","RUN"],"invitationStatus":"ACCEPTED","inviteUrl":null,"expiredAt":null,"createAt":"2025-05-20T13:17:50.187Z","updatedAt":"2025-05-20T13:19:17.992Z"},{"id":6129,"teamId":25,"userId":427,"email":"123@mail.ru","userDisplayName":"","permissionList":["EDIT","VIEW","RUN"],"invitationStatus":"WAITING_FOR_ACCEPTANCE","inviteUrl":"/auth-srv/invite/opgmalueRtopulIpLPdjDbQ2dTupCUr-eFP-rtePpJHGUqCOlEc6JZiIw6CLbKyf1ZWwQoLGzZ09sNkEQWm1SpMwttQtvrKhOEN2znp_SdI=","expiredAt":"2025-05-21T13:41:27.351Z","createAt":"2025-05-20T13:41:27.351Z","updatedAt":"2025-05-20T13:41:27.357Z"},{"id":6136,"teamId":25,"userId":5982,"email":"smutr@mail.ru","userDisplayName":"smutr","permissionList":["EDIT","VIEW","RUN"],"invitationStatus":"ACCEPTED","inviteUrl":null,"expiredAt":null,"createAt":"2025-05-20T13:57:57.480Z","updatedAt":"2025-05-20T13:57:57.915Z"}],"pageable":{"sort":{"sorted":false,"unsorted":true,"empty":true},"pageNumber":8,"pageSize":3,"offset":24,"unpaged":false,"paged":true},"last":false,"totalElements":62,"totalPages":21,"first":false,"sort":{"sorted":false,"unsorted":true,"empty":true},"numberOfElements":3,"size":3,"number":8,"empty":false}