{"content":[{"id":6118,"teamId":25,"userId":5896,"email":"leb_test_02@gmail.com","userDisplayName":"leb_test_02","permissionList":["EDIT","VIEW","RUN"],"invitationStatus":"ACCEPTED","inviteUrl":null,"expiredAt":null,"createAt":"2025-05-20T12:44:14.720Z","updatedAt":"2025-05-20T12:44:14.720Z"},{"id":6120,"teamId":25,"userId":5967,"email":"leb_test_04@gmail.com","userDisplayName":"leb_test_04","permissionList":["EDIT","VIEW","RUN"],"invitationStatus":"ACCEPTED","inviteUrl":null,"expiredAt":null,"createAt":"2025-05-20T13:03:35.593Z","updatedAt":"2025-05-20T13:03:49.743Z"},{"id":6122,"teamId":25,"userId":5969,"email":"leb_test_05@gmail.com","userDisplayName":"leb_test_05","permissionList":["EDIT","VIEW","RUN"],"invitationStatus":"ACCEPTED","inviteUrl":null,"expiredAt":null,"createAt":"2025-05-20T13:06:55.201Z","updatedAt":"2025-05-20T13:07:15.966Z"}],"pageable":{"sort":{"sorted":false,"unsorted":true,"empty":true},"pageNumber":7,"pageSize":3,"offset":21,"unpaged":false,"paged":true},"last":false,"totalElements":62,"totalPages":21,"first":false,"sort":{"sorted":false,"unsorted":true,"empty":true},"numberOfElements":3,"size":3,"number":7,"empty":false}