{"content":[{"id":6067,"teamId":25,"userId":5923,"email":"1212@ds.com","userDisplayName":"1212","permissionList":[],"invitationStatus":"ACCEPTED","inviteUrl":null,"expiredAt":null,"createAt":"2025-05-19T20:16:16.801Z","updatedAt":"2025-05-19T20:16:33.212Z"},{"id":6100,"teamId":25,"userId":5953,"email":"us@666.er","userDisplayName":"user_666","permissionList":["EDIT","VIEW","RUN"],"invitationStatus":"ACCEPTED","inviteUrl":null,"expiredAt":null,"createAt":"2025-05-20T08:48:15.721Z","updatedAt":"2025-05-20T08:49:09.782Z"},{"id":6104,"teamId":25,"userId":5957,"email":"test_666@mail.ru","userDisplayName":"Alex","permissionList":["EDIT","VIEW","RUN"],"invitationStatus":"WAITING_FOR_ACCEPTANCE","inviteUrl":"/auth-srv/invite/_ZvhfhRhfzwm5QIcc0mjJneMguU-jDmEk1XmtEmVweGmbroS0JD3uGPt7wbJ9pqqvPGKx8Oe0tga-XrX7OH0D2cs3i5xiLbswfC6ebrjRnk=","expiredAt":"2025-05-21T11:21:04.789Z","createAt":"2025-05-20T11:21:04.789Z","updatedAt":"2025-05-20T11:21:04.908Z"}],"pageable":{"sort":{"sorted":false,"unsorted":true,"empty":true},"pageNumber":6,"pageSize":3,"offset":18,"unpaged":false,"paged":true},"last":false,"totalElements":62,"totalPages":21,"first":false,"sort":{"sorted":false,"unsorted":true,"empty":true},"numberOfElements":3,"size":3,"number":6,"empty":false}