{"content":[{"id":6060,"teamId":25,"userId":5917,"email":"usertest42@mail.com","userDisplayName":"userTest42","permissionList":["EDIT","VIEW","RUN"],"invitationStatus":"ACCEPTED","inviteUrl":null,"expiredAt":null,"createAt":"2025-05-19T16:30:43.578Z","updatedAt":"2025-05-19T16:30:59.188Z"},{"id":6063,"teamId":25,"userId":5919,"email":"test123@mail.com","userDisplayName":"test123","permissionList":["EDIT","VIEW","RUN"],"invitationStatus":"ACCEPTED","inviteUrl":null,"expiredAt":"2025-05-21T20:43:49.969Z","createAt":"2025-05-19T18:41:38.506Z","updatedAt":"2025-05-20T20:43:49.971Z"},{"id":6065,"teamId":25,"userId":5921,"email":"uc_1_01@boom.com","userDisplayName":" uc_1_01","permissionList":["EDIT","VIEW","RUN"],"invitationStatus":"ACCEPTED","inviteUrl":null,"expiredAt":null,"createAt":"2025-05-19T18:58:52.395Z","updatedAt":"2025-05-19T18:59:51.708Z"}],"pageable":{"sort":{"sorted":false,"unsorted":true,"empty":true},"pageNumber":5,"pageSize":3,"offset":15,"unpaged":false,"paged":true},"last":false,"totalElements":62,"totalPages":21,"first":false,"sort":{"sorted":false,"unsorted":true,"empty":true},"numberOfElements":3,"size":3,"number":5,"empty":false}