{"content":[{"id":6040,"teamId":25,"userId":5899,"email":"leb_test_01@gmai.com","userDisplayName":"leb_test_01","permissionList":["EDIT","VIEW","RUN"],"invitationStatus":"ACCEPTED","inviteUrl":null,"expiredAt":null,"createAt":"2025-05-19T15:09:25.844Z","updatedAt":"2025-05-19T15:10:00.837Z"},{"id":6047,"teamId":25,"userId":5905,"email":"test1@mail.com","userDisplayName":"test1","permissionList":["EDIT","VIEW","RUN"],"invitationStatus":"ACCEPTED","inviteUrl":null,"expiredAt":null,"createAt":"2025-05-19T15:41:40.909Z","updatedAt":"2025-05-19T15:41:53.941Z"},{"id":6059,"teamId":25,"userId":5916,"email":"usertest41@mail.com","userDisplayName":"userTest41","permissionList":["EDIT","VIEW","RUN"],"invitationStatus":"ACCEPTED","inviteUrl":null,"expiredAt":null,"createAt":"2025-05-19T16:28:39.112Z","updatedAt":"2025-05-19T16:28:55.967Z"}],"pageable":{"sort":{"sorted":false,"unsorted":true,"empty":true},"pageNumber":4,"pageSize":3,"offset":12,"unpaged":false,"paged":true},"last":false,"totalElements":62,"totalPages":21,"first":false,"sort":{"sorted":false,"unsorted":true,"empty":true},"numberOfElements":3,"size":3,"number":4,"empty":false}