{"content":[{"id":6018,"teamId":25,"userId":5882,"email":"test_test01@mail.com","userDisplayName":"test_test01","permissionList":["EDIT","VIEW","RUN"],"invitationStatus":"ACCEPTED","inviteUrl":null,"expiredAt":null,"createAt":"2025-05-19T08:10:35.492Z","updatedAt":"2025-05-19T08:10:53.226Z"},{"id":6020,"teamId":25,"userId":5884,"email":"user001@user001.vv","userDisplayName":"user001","permissionList":["EDIT","VIEW","RUN"],"invitationStatus":"ACCEPTED","inviteUrl":null,"expiredAt":null,"createAt":"2025-05-19T10:07:31.649Z","updatedAt":"2025-05-19T10:08:01.270Z"},{"id":6027,"teamId":25,"userId":5888,"email":"nagruzka3_gr01_vais1@gmail.com","userDisplayName":"Nagruzka3_gr01_vais1","permissionList":["EDIT","VIEW","RUN"],"invitationStatus":"ACCEPTED","inviteUrl":null,"expiredAt":null,"createAt":"2025-05-19T13:11:25.266Z","updatedAt":"2025-05-19T13:28:48.657Z"}],"pageable":{"sort":{"sorted":false,"unsorted":true,"empty":true},"pageNumber":3,"pageSize":3,"offset":9,"unpaged":false,"paged":true},"last":false,"totalElements":62,"totalPages":21,"first":false,"sort":{"sorted":false,"unsorted":true,"empty":true},"numberOfElements":3,"size":3,"number":3,"empty":false}