{"content":[{"id":6162,"teamId":25,"userId":643,"email":"r@mail.ru","userDisplayName":"","permissionList":["EDIT","VIEW","RUN"],"invitationStatus":"ACCEPTED","inviteUrl":null,"expiredAt":null,"createAt":"2025-05-20T15:26:41.666Z","updatedAt":"2025-05-20T15:26:41.666Z"},{"id":6016,"teamId":25,"userId":1,"email":"admin@boomq.io","userDisplayName":null,"permissionList":["ADMIN"],"invitationStatus":"ACCEPTED","inviteUrl":null,"expiredAt":null,"createAt":"2025-05-19T07:03:46.655Z","updatedAt":"2025-05-19T07:03:46.655Z"},{"id":6017,"teamId":25,"userId":5881,"email":"nagruzka3_gr01@mail.com","userDisplayName":"nagruzka3_gr01","permissionList":["EDIT","ADMIN","VIEW","MANAGE_USERS_IN_ORG","RUN"],"invitationStatus":"ACCEPTED","inviteUrl":null,"expiredAt":null,"createAt":"2025-05-19T07:04:16.658Z","updatedAt":"2025-05-20T14:47:27.975Z"}],"pageable":{"sort":{"sorted":false,"unsorted":true,"empty":true},"pageNumber":2,"pageSize":3,"offset":6,"unpaged":false,"paged":true},"last":false,"totalElements":62,"totalPages":21,"first":false,"sort":{"sorted":false,"unsorted":true,"empty":true},"numberOfElements":3,"size":3,"number":2,"empty":false}