{"content":[{"id":6238,"teamId":25,"userId":6075,"email":"emi03@mail.ru","userDisplayName":"emi03","permissionList":["EDIT","VIEW","RUN"],"invitationStatus":"ACCEPTED","inviteUrl":null,"expiredAt":null,"createAt":"2025-05-20T20:46:30.293Z","updatedAt":"2025-05-20T20:47:41.634Z"},{"id":6240,"teamId":25,"userId":6077,"email":"xxxx@gmail.com","userDisplayName":"xxxx","permissionList":["EDIT","VIEW","RUN"],"invitationStatus":"WAITING_FOR_ACCEPTANCE","inviteUrl":"/auth-srv/invite/fFRs1gHgQO9q5NJXkmc0sDjT6AiYs8Xx90Oh5yDhg4rY0sgFf3m-SGrMO3yN4UGou2EDK2sN1VyIvAa6tDuJwuLd60KV8tDytWoq-erfPF4=","expiredAt":"2025-05-21T21:06:23.733Z","createAt":"2025-05-20T21:06:23.733Z","updatedAt":"2025-05-20T21:06:23.873Z"},{"id":6196,"teamId":25,"userId":6019,"email":"user7600@example.com","userDisplayName":"user7600","permissionList":["EDIT","VIEW","RUN"],"invitationStatus":"ACCEPTED","inviteUrl":null,"expiredAt":null,"createAt":"2025-05-20T18:28:40.879Z","updatedAt":"2025-05-20T18:28:40.879Z"}],"pageable":{"sort":{"sorted":false,"unsorted":true,"empty":true},"pageNumber":1,"pageSize":3,"offset":3,"unpaged":false,"paged":true},"last":false,"totalElements":62,"totalPages":21,"first":false,"sort":{"sorted":false,"unsorted":true,"empty":true},"numberOfElements":3,"size":3,"number":1,"empty":false}