{"content":[{"id":6116,"teamId":25,"userId":869,"email":"test@test.test","userDisplayName":"tester","permissionList":["EDIT","VIEW","RUN"],"invitationStatus":"ACCEPTED","inviteUrl":null,"expiredAt":null,"createAt":"2025-05-20T12:35:46.150Z","updatedAt":"2025-05-20T12:35:46.150Z"},{"id":6238,"teamId":25,"userId":6075,"email":"emi03@mail.ru","userDisplayName":"emi03","permissionList":["EDIT","VIEW","RUN"],"invitationStatus":"ACCEPTED","inviteUrl":null,"expiredAt":null,"createAt":"2025-05-20T20:46:30.293Z","updatedAt":"2025-05-20T20:47:41.634Z"},{"id":6196,"teamId":25,"userId":6019,"email":"user7600@example.com","userDisplayName":"user7600","permissionList":["EDIT","VIEW","RUN"],"invitationStatus":"ACCEPTED","inviteUrl":null,"expiredAt":null,"createAt":"2025-05-20T18:28:40.879Z","updatedAt":"2025-05-20T18:28:40.879Z"}],"pageable":{"sort":{"sorted":false,"unsorted":true,"empty":true},"pageNumber":0,"pageSize":3,"offset":0,"unpaged":false,"paged":true},"last":false,"totalElements":58,"totalPages":20,"first":true,"sort":{"sorted":false,"unsorted":true,"empty":true},"numberOfElements":3,"size":3,"number":0,"empty":false}