{"content":[{"id":6245,"teamId":25,"userId":6081,"email":"666xxx@gmail.com","userDisplayName":"666xxx","permissionList":["EDIT","VIEW","RUN"],"invitationStatus":"WAITING_FOR_ACCEPTANCE","inviteUrl":"/auth-srv/invite/rUKch0x_fI-6VsR91-bw4zxeQ4A3MxiNaHQH2hS37tofbaTDiO0xO4Fal5HZCZM2vPGKx8Oe0tga-XrX7OH0D8BYTjnkrathcbq4mu7zHdw=","expiredAt":"2025-05-21T21:15:47.209Z","createAt":"2025-05-20T21:15:47.209Z","updatedAt":"2025-05-20T21:15:47.325Z"},{"id":6162,"teamId":25,"userId":643,"email":"r@mail.ru","userDisplayName":"","permissionList":["EDIT","VIEW","RUN"],"invitationStatus":"ACCEPTED","inviteUrl":null,"expiredAt":null,"createAt":"2025-05-20T15:26:41.666Z","updatedAt":"2025-05-20T15:26:41.666Z"},{"id":6016,"teamId":25,"userId":1,"email":"admin@boomq.io","userDisplayName":null,"permissionList":["ADMIN"],"invitationStatus":"ACCEPTED","inviteUrl":null,"expiredAt":null,"createAt":"2025-05-19T07:03:46.655Z","updatedAt":"2025-05-19T07:03:46.655Z"}],"pageable":{"sort":{"sorted":false,"unsorted":true,"empty":true},"pageNumber":1,"pageSize":3,"offset":3,"unpaged":false,"paged":true},"last":false,"totalElements":59,"totalPages":20,"first":false,"sort":{"sorted":false,"unsorted":true,"empty":true},"numberOfElements":3,"size":3,"number":1,"empty":false}