{"content":[{"id":6246,"teamId":25,"userId":6082,"email":"test466@mail.com","userDisplayName":"test466","permissionList":["EDIT","VIEW","RUN"],"invitationStatus":"ACCEPTED","inviteUrl":null,"expiredAt":null,"createAt":"2025-05-20T21:17:55.746Z","updatedAt":"2025-05-20T21:17:56.450Z"},{"id":6247,"teamId":25,"userId":6081,"email":"666xxx@gmail.com","userDisplayName":"666xxx","permissionList":["EDIT","VIEW","RUN"],"invitationStatus":"WAITING_FOR_ACCEPTANCE","inviteUrl":"/auth-srv/invite/rUKch0x_fI-6VsR91-bw4zxeQ4A3MxiNaHQH2hS37tofbaTDiO0xO4Fal5HZCZM2vPGKx8Oe0tga-XrX7OH0DwCadRNx4mL1d515e2u7aTI=","expiredAt":"2025-05-21T21:20:41.481Z","createAt":"2025-05-20T21:20:41.481Z","updatedAt":"2025-05-20T21:20:41.485Z"},{"id":6248,"teamId":25,"userId":6083,"email":"test65@mail.com","userDisplayName":"test65","permissionList":["EDIT","VIEW","RUN"],"invitationStatus":"ACCEPTED","inviteUrl":null,"expiredAt":null,"createAt":"2025-05-20T21:20:44.949Z","updatedAt":"2025-05-20T21:20:45.306Z"}],"pageable":{"sort":{"sorted":false,"unsorted":true,"empty":true},"pageNumber":1,"pageSize":3,"offset":3,"unpaged":false,"paged":true},"last":false,"totalElements":61,"totalPages":21,"first":false,"sort":{"sorted":false,"unsorted":true,"empty":true},"numberOfElements":3,"size":3,"number":1,"empty":false}