{"content":[{"id":6028,"teamId":25,"userId":5889,"email":"test01@test.com","userDisplayName":"test01","permissionList":["EDIT","VIEW","RUN"],"invitationStatus":"ACCEPTED","inviteUrl":null,"expiredAt":null,"createAt":"2025-05-19T14:10:30.314Z","updatedAt":"2025-05-19T14:11:57.652Z"},{"id":6016,"teamId":25,"userId":1,"email":"admin@boomq.io","userDisplayName":null,"permissionList":["ADMIN"],"invitationStatus":"ACCEPTED","inviteUrl":null,"expiredAt":null,"createAt":"2025-05-19T07:03:46.655Z","updatedAt":"2025-05-19T07:03:46.655Z"},{"id":6017,"teamId":25,"userId":5881,"email":"nagruzka3_gr01@mail.com","userDisplayName":"nagruzka3_gr01","permissionList":["EDIT","ADMIN","VIEW","MANAGE_USERS_IN_ORG","RUN"],"invitationStatus":"ACCEPTED","inviteUrl":null,"expiredAt":null,"createAt":"2025-05-19T07:04:16.658Z","updatedAt":"2025-05-19T07:04:21.200Z"}],"pageable":{"sort":{"sorted":false,"unsorted":true,"empty":true},"pageNumber":0,"pageSize":3,"offset":0,"unpaged":false,"paged":true},"last":false,"totalElements":12,"totalPages":4,"first":true,"sort":{"sorted":false,"unsorted":true,"empty":true},"numberOfElements":3,"size":3,"number":0,"empty":false}