{"content":[{"id":6222,"teamId":25,"userId":6059,"email":"user2050@3xampl3.com","userDisplayName":"user2050","permissionList":["EDIT","VIEW","RUN"],"invitationStatus":"ACCEPTED","inviteUrl":null,"expiredAt":null,"createAt":"2025-05-20T20:07:33.796Z","updatedAt":"2025-05-20T20:07:34.113Z"},{"id":6231,"teamId":25,"userId":6068,"email":"emi02@mail.ru","userDisplayName":"emi02","permissionList":["EDIT","VIEW","RUN"],"invitationStatus":"ACCEPTED","inviteUrl":null,"expiredAt":null,"createAt":"2025-05-20T20:33:37.487Z","updatedAt":"2025-05-20T20:34:10.483Z"}],"pageable":{"sort":{"sorted":false,"unsorted":true,"empty":true},"pageNumber":20,"pageSize":3,"offset":60,"unpaged":false,"paged":true},"last":true,"totalElements":62,"totalPages":21,"first":false,"sort":{"sorted":false,"unsorted":true,"empty":true},"numberOfElements":2,"size":3,"number":20,"empty":false}