{"content":[{"id":2597,"projectName":"hadouken_test_6006","settingsId":null,"comment":"","lastModified":"2025-05-23T13:04:34","contentFormat":"yaml","contentModelVersion":null,"labelSet":[],"testType":"STABLE","requestCount":1,"totalDuration":60,"version":[{"id":3655,"projectId":2597,"settingsId":null,"createdOn":"2025-05-23T13:04:34.537Z","location":"boomq/teams/22/projects/2597/v_3655.yaml","comment":"","contentFormat":"yaml","contentModelVersion":"2.0.0","testType":"STABLE","requestCount":1,"totalDuration":60,"versionNumber":1}]},{"id":2596,"projectName":"t № 333","settingsId":null,"comment":"","lastModified":"2025-05-23T12:14:36","contentFormat":"yaml","contentModelVersion":null,"labelSet":[],"testType":"STABLE","requestCount":1,"totalDuration":60,"version":[{"id":3652,"projectId":2596,"settingsId":null,"createdOn":"2025-05-23T12:14:36.229Z","location":"boomq/teams/22/projects/2596/v_3652.yaml","comment":"","contentFormat":"yaml","contentModelVersion":"2.0.0","testType":"STABLE","requestCount":1,"totalDuration":720,"versionNumber":1},{"id":3653,"projectId":2596,"settingsId":null,"createdOn":"2025-05-23T12:15:07.045Z","location":"boomq/teams/22/projects/2596/v_3653.yaml","comment":"","contentFormat":"yaml","contentModelVersion":"2.0.0","testType":"STABLE","requestCount":1,"totalDuration":720,"versionNumber":2},{"id":3654,"projectId":2596,"settingsId":null,"createdOn":"2025-05-23T13:00:55.687Z","location":"boomq/teams/22/projects/2596/v_3654.yaml","comment":"","contentFormat":"yaml","contentModelVersion":"2.0.0","testType":"STABLE","requestCount":1,"totalDuration":60,"versionNumber":3}]},{"id":2588,"projectName":"Group 3 Nik 8531","settingsId":null,"comment":"","lastModified":"2025-05-23T00:41:47","contentFormat":"yaml","contentModelVersion":null,"labelSet":[],"testType":"STABLE","requestCount":1,"totalDuration":60,"version":[{"id":3644,"projectId":2588,"settingsId":null,"createdOn":"2025-05-23T00:41:47.792Z","location":"boomq/teams/22/projects/2588/v_3644.yaml","comment":"","contentFormat":"yaml","contentModelVersion":"2.0.0","testType":"STABLE","requestCount":1,"totalDuration":60,"versionNumber":1}]},{"id":2587,"projectName":"hadouken_test_8193","settingsId":null,"comment":"","lastModified":"2025-05-22T21:47:36","contentFormat":"yaml","contentModelVersion":null,"labelSet":[],"testType":"STABLE","requestCount":1,"totalDuration":60,"version":[{"id":3643,"projectId":2587,"settingsId":null,"createdOn":"2025-05-22T21:47:36.123Z","location":"boomq/teams/22/projects/2587/v_3643.yaml","comment":"","contentFormat":"yaml","contentModelVersion":"2.0.0","testType":"STABLE","requestCount":1,"totalDuration":60,"versionNumber":1}]},{"id":2577,"projectName":"Group 3 Nik 2371","settingsId":null,"comment":"","lastModified":"2025-05-22T17:49:54","contentFormat":"yaml","contentModelVersion":null,"labelSet":[],"testType":"STABLE","requestCount":1,"totalDuration":60,"version":[{"id":3633,"projectId":2577,"settingsId":null,"createdOn":"2025-05-22T17:49:54.545Z","location":"boomq/teams/22/projects/2577/v_3633.yaml","comment":"","contentFormat":"yaml","contentModelVersion":"2.0.0","testType":"STABLE","requestCount":1,"totalDuration":60,"versionNumber":1}]},{"id":2576,"projectName":"Group 3 Nik 56","settingsId":null,"comment":"","lastModified":"2025-05-22T17:38:05","contentFormat":"yaml","contentModelVersion":null,"labelSet":[],"testType":"STABLE","requestCount":1,"totalDuration":60,"version":[{"id":3632,"projectId":2576,"settingsId":null,"createdOn":"2025-05-22T17:38:05.486Z","location":"boomq/teams/22/projects/2576/v_3632.yaml","comment":"","contentFormat":"yaml","contentModelVersion":"2.0.0","testType":"STABLE","requestCount":1,"totalDuration":60,"versionNumber":1}]},{"id":2575,"projectName":"Group 3 Nik 4632","settingsId":null,"comment":"","lastModified":"2025-05-22T17:32:00","contentFormat":"yaml","contentModelVersion":null,"labelSet":[],"testType":"STABLE","requestCount":1,"totalDuration":60,"version":[{"id":3631,"projectId":2575,"settingsId":null,"createdOn":"2025-05-22T17:32:00.645Z","location":"boomq/teams/22/projects/2575/v_3631.yaml","comment":"","contentFormat":"yaml","contentModelVersion":"2.0.0","testType":"STABLE","requestCount":1,"totalDuration":60,"versionNumber":1}]},{"id":2574,"projectName":"Group 3 Nik 3842","settingsId":null,"comment":"","lastModified":"2025-05-22T17:27:54","contentFormat":"yaml","contentModelVersion":null,"labelSet":[],"testType":"STABLE","requestCount":1,"totalDuration":60,"version":[{"id":3630,"projectId":2574,"settingsId":null,"createdOn":"2025-05-22T17:27:54.867Z","location":"boomq/teams/22/projects/2574/v_3630.yaml","comment":"","contentFormat":"yaml","contentModelVersion":"2.0.0","testType":"STABLE","requestCount":1,"totalDuration":60,"versionNumber":1}]},{"id":2573,"projectName":"Group 3 Nik 3541","settingsId":null,"comment":"","lastModified":"2025-05-22T17:26:23","contentFormat":"yaml","contentModelVersion":null,"labelSet":[],"testType":"STABLE","requestCount":1,"totalDuration":60,"version":[{"id":3629,"projectId":2573,"settingsId":null,"createdOn":"2025-05-22T17:26:23.404Z","location":"boomq/teams/22/projects/2573/v_3629.yaml","comment":"","contentFormat":"yaml","contentModelVersion":"2.0.0","testType":"STABLE","requestCount":1,"totalDuration":60,"versionNumber":1}]}],"pageable":{"sort":{"sorted":true,"unsorted":false,"empty":false},"pageNumber":0,"pageSize":9,"offset":0,"paged":true,"unpaged":false},"totalElements":51,"totalPages":6,"last":false,"first":true,"sort":{"sorted":true,"unsorted":false,"empty":false},"numberOfElements":9,"size":9,"number":0,"empty":false}