{"content":[{"id":5877,"name":"Report name","createdAt":"2025-05-21T09:00:33.359Z","updatedAt":"2025-05-21T09:00:33.377Z","createdByUserEmail":"testname12@mail.ru","updatedByUserEmail":"testname12@mail.ru","testIdSet":[],"labelSet":[]},{"id":5876,"name":"Report name","createdAt":"2025-05-21T08:58:46.077Z","updatedAt":"2025-05-21T08:58:46.091Z","createdByUserEmail":"testname12@mail.ru","updatedByUserEmail":"testname12@mail.ru","testIdSet":[],"labelSet":[]},{"id":5875,"name":"TestRepornName01","createdAt":"2025-05-21T08:54:11.084Z","updatedAt":"2025-05-21T08:54:11.096Z","createdByUserEmail":"testname12@mail.ru","updatedByUserEmail":"testname12@mail.ru","testIdSet":[],"labelSet":[]},{"id":5874,"name":"TestRepornName01","createdAt":"2025-05-21T08:53:31.822Z","updatedAt":"2025-05-21T08:53:31.866Z","createdByUserEmail":"testname12@mail.ru","updatedByUserEmail":"testname12@mail.ru","testIdSet":[],"labelSet":[]},{"id":5873,"name":"TestRepornName01","createdAt":"2025-05-21T08:48:54.686Z","updatedAt":"2025-05-21T08:48:54.707Z","createdByUserEmail":"testname12@mail.ru","updatedByUserEmail":"testname12@mail.ru","testIdSet":[],"labelSet":[]},{"id":5872,"name":"reportdmit_56789","createdAt":"2025-05-21T03:31:32.632Z","updatedAt":"2025-05-21T03:31:32.676Z","createdByUserEmail":"someuser@someuser.ru","updatedByUserEmail":"someuser@someuser.ru","testIdSet":[],"labelSet":[]},{"id":5871,"name":"reportdmit_45678","createdAt":"2025-05-21T02:26:30.533Z","updatedAt":"2025-05-21T02:26:30.548Z","createdByUserEmail":"someuser@someuser.ru","updatedByUserEmail":"someuser@someuser.ru","testIdSet":[],"labelSet":[]},{"id":5870,"name":"reportdmit_34567","createdAt":"2025-05-21T02:06:28.049Z","updatedAt":"2025-05-21T02:06:28.064Z","createdByUserEmail":"someuser@someuser.ru","updatedByUserEmail":"someuser@someuser.ru","testIdSet":[],"labelSet":[]},{"id":5869,"name":"reportdmit_23456","createdAt":"2025-05-20T22:55:07.384Z","updatedAt":"2025-05-20T22:55:07.401Z","createdByUserEmail":"someuser@someuser.ru","updatedByUserEmail":"someuser@someuser.ru","testIdSet":[],"labelSet":[]}],"pageable":{"sort":{"sorted":true,"unsorted":false,"empty":false},"pageNumber":0,"pageSize":9,"offset":0,"paged":true,"unpaged":false},"totalPages":4,"totalElements":35,"last":false,"first":true,"sort":{"sorted":true,"unsorted":false,"empty":false},"numberOfElements":9,"size":9,"number":0,"empty":false}